\relax 
\providecommand\hyper@newdestlabel[2]{}
\providecommand*\new@tpo@label[2]{}
\providecommand\HyperFirstAtBeginDocument{\AtBeginDocument}
\HyperFirstAtBeginDocument{\ifx\hyper@anchor\@undefined
\global\let\oldcontentsline\contentsline
\gdef\contentsline#1#2#3#4{\oldcontentsline{#1}{#2}{#3}}
\global\let\oldnewlabel\newlabel
\gdef\newlabel#1#2{\newlabelxx{#1}#2}
\gdef\newlabelxx#1#2#3#4#5#6{\oldnewlabel{#1}{{#2}{#3}}}
\AtEndDocument{\ifx\hyper@anchor\@undefined
\let\contentsline\oldcontentsline
\let\newlabel\oldnewlabel
\fi}
\fi}
\global\let\hyper@last\relax 
\gdef\HyperFirstAtBeginDocument#1{#1}
\providecommand\HyField@AuxAddToFields[1]{}
\providecommand\HyField@AuxAddToCoFields[2]{}
\providecommand\BKM@entry[2]{}
\abx@aux@refcontext{nty/global//global/global}
\@nameuse{bbl@beforestart}
\catcode `"\active 
\abx@aux@cite{Person1}
\abx@aux@segm{0}{0}{Person1}
\abx@aux@cite{Person2}
\abx@aux@segm{0}{0}{Person2}
\@writefile{toc}{\boolfalse {citerequest}\boolfalse {citetracker}\boolfalse {pagetracker}\boolfalse {backtracker}\relax }
\@writefile{lof}{\boolfalse {citerequest}\boolfalse {citetracker}\boolfalse {pagetracker}\boolfalse {backtracker}\relax }
\@writefile{lot}{\boolfalse {citerequest}\boolfalse {citetracker}\boolfalse {pagetracker}\boolfalse {backtracker}\relax }
\babel@aux{german}{}
\abx@aux@cite{Person1}
\abx@aux@segm{0}{0}{Person1}
\abx@aux@cite{Person2}
\abx@aux@segm{0}{0}{Person2}
\babel@aux{german}{}
\babel@aux{english}{}
\BKM@entry{id=1,dest={636861707465722E31},srcline={1}}{496E74726F64756374696F6E}
\@writefile{toc}{\defcounter {refsection}{0}\relax }\@writefile{toc}{\contentsline {chapter}{\numberline {1}Introduction}{1}{chapter.1}\protected@file@percent }
\@writefile{lof}{\defcounter {refsection}{0}\relax }\@writefile{lof}{\addvspace {10\p@ }}
\@writefile{lot}{\defcounter {refsection}{0}\relax }\@writefile{lot}{\addvspace {10\p@ }}
\@writefile{lol}{\defcounter {refsection}{0}\relax }\@writefile{lol}{\addvspace {10\p@ }}
\newlabel{ch:intro}{{1}{1}{Introduction}{chapter.1}{}}
\newlabel{eq:Emp2}{{1.1}{1}{Introduction}{equation.1.0.1}{}}
\newlabel{eq:Vabij}{{1.2}{1}{Introduction}{equation.1.0.2}{}}
\newlabel{eq:Emp2exp}{{1.3}{1}{Introduction}{equation.1.0.3}{}}
\abx@aux@cite{doi:10.1063/1.4977994}
\abx@aux@segm{0}{0}{doi:10.1063/1.4977994}
\@writefile{lof}{\defcounter {refsection}{0}\relax }\@writefile{lof}{\contentsline {figure}{\numberline {1.1}{\ignorespaces Hugenholtz diagram of MP2\relax }}{2}{figure.caption.4}\protected@file@percent }
\providecommand*\caption@xref[2]{\@setref\relax\@undefined{#1}}
\newlabel{fig:H_ord2}{{1.1}{2}{Hugenholtz diagram of MP2\relax }{figure.caption.4}{}}
\@writefile{lof}{\defcounter {refsection}{0}\relax }\@writefile{lof}{\contentsline {figure}{\numberline {1.2}{\ignorespaces All second order Goldstone diagrams in M{\o }ller--Plesset perturbation theory.\relax }}{2}{figure.caption.5}\protected@file@percent }
\newlabel{fig:G_ord2}{{1.2}{2}{All second order Goldstone diagrams in M{\o }ller--Plesset perturbation theory.\relax }{figure.caption.5}{}}
\newlabel{eq:Emp2n}{{1.4}{2}{Introduction}{equation.1.0.4}{}}
\newlabel{eq:Emp21_tildegamma}{{1.5}{3}{Introduction}{equation.1.0.5}{}}
\newlabel{eq:Emp22_tildegamma}{{1.6}{3}{Introduction}{equation.1.0.6}{}}
\newlabel{eq:Emp21_gamma}{{1.8}{3}{Introduction}{equation.1.0.8}{}}
\newlabel{eq:Emp22_gamma}{{1.9}{3}{Introduction}{equation.1.0.9}{}}
\@writefile{lof}{\defcounter {refsection}{0}\relax }\@writefile{lof}{\contentsline {figure}{\numberline {1.3}{\ignorespaces tensor network representations of Equations \textup  {\hbox {\mathsurround \z@ \normalfont  (\ignorespaces \ref  {eq:Emp21_gamma}\unskip \@@italiccorr )}} and \textup  {\hbox {\mathsurround \z@ \normalfont  (\ignorespaces \ref  {eq:Emp22_gamma}\unskip \@@italiccorr )}}\relax }}{4}{figure.caption.6}\protected@file@percent }
\newlabel{fig:tennet}{{1.3}{4}{tensor network representations of Equations \eqref {eq:Emp21_gamma} and \eqref {eq:Emp22_gamma}\relax }{figure.caption.6}{}}
\BKM@entry{id=2,dest={636861707465722E32},srcline={1}}{53746F63686173746963206576616C756174696F6E206F662074656E736F72206E6574776F726B73}
\abx@aux@cite{doi:10.1021/ct5001268}
\abx@aux@segm{0}{0}{doi:10.1021/ct5001268}
\BKM@entry{id=3,dest={73656374696F6E2E322E31},srcline={44}}{4D6F6E74652D4361726C6F206576616C756174696F6E}
\@writefile{toc}{\defcounter {refsection}{0}\relax }\@writefile{toc}{\contentsline {chapter}{\numberline {2}Stochastic evaluation of tensor networks}{5}{chapter.2}\protected@file@percent }
\@writefile{lof}{\defcounter {refsection}{0}\relax }\@writefile{lof}{\addvspace {10\p@ }}
\@writefile{lot}{\defcounter {refsection}{0}\relax }\@writefile{lot}{\addvspace {10\p@ }}
\@writefile{lol}{\defcounter {refsection}{0}\relax }\@writefile{lol}{\addvspace {10\p@ }}
\newlabel{ch:stocheval}{{2}{5}{Stochastic evaluation of tensor networks}{chapter.2}{}}
\@writefile{toc}{\defcounter {refsection}{0}\relax }\@writefile{toc}{\contentsline {section}{\numberline {2.1}Monte-Carlo evaluation}{5}{section.2.1}\protected@file@percent }
\newlabel{eq:PDF_normalized}{{2.4}{6}{Monte-Carlo evaluation}{equation.2.1.4}{}}
\newlabel{eq:1stMoment}{{2.7}{6}{Monte-Carlo evaluation}{equation.2.1.7}{}}
\BKM@entry{id=4,dest={73656374696F6E2E322E32},srcline={145}}{496D706F7274616E63652073616D706C696E67}
\newlabel{eq:var}{{2.9}{7}{Monte-Carlo evaluation}{equation.2.1.9}{}}
\newlabel{eq:unbiasedEsti_expVar}{{2.10}{7}{Monte-Carlo evaluation}{equation.2.1.10}{}}
\newlabel{eq:expVal_var_est}{{2.12}{7}{Monte-Carlo evaluation}{equation.2.1.12}{}}
\@writefile{toc}{\defcounter {refsection}{0}\relax }\@writefile{toc}{\contentsline {section}{\numberline {2.2}Importance sampling}{7}{section.2.2}\protected@file@percent }
\newlabel{sec:importanceSampling}{{2.2}{7}{Importance sampling}{section.2.2}{}}
\abx@aux@cite{AC02552795}
\abx@aux@segm{0}{0}{AC02552795}
\abx@aux@cite{AC02445899}
\abx@aux@segm{0}{0}{AC02445899}
\abx@aux@cite{AC00103169}
\abx@aux@segm{0}{0}{AC00103169}
\abx@aux@cite{rubinstein}
\abx@aux@segm{0}{0}{rubinstein}
\abx@aux@cite{AC08207698}
\abx@aux@segm{0}{0}{AC08207698}
\abx@aux@cite{HandbookMCMC}
\abx@aux@segm{0}{0}{HandbookMCMC}
\BKM@entry{id=5,dest={73656374696F6E2E322E33},srcline={197}}{496E76657273696F6E206D6574686F64}
\newlabel{eq:exVal_is}{{2.13}{8}{Importance sampling}{equation.2.2.13}{}}
\newlabel{subfig:ex_dist}{{2.1a}{9}{\relax }{figure.caption.8}{}}
\newlabel{sub@subfig:ex_dist}{{a}{9}{\relax }{figure.caption.8}{}}
\newlabel{subfig:ex_cdf}{{2.1b}{9}{CDF $P_{X}$ and CDF $F_{X}$\relax }{figure.caption.8}{}}
\newlabel{sub@subfig:ex_cdf}{{b}{9}{CDF $P_{X}$ and CDF $F_{X}$\relax }{figure.caption.8}{}}
\@writefile{lof}{\defcounter {refsection}{0}\relax }\@writefile{lof}{\contentsline {figure}{\numberline {2.1}{\ignorespaces Figure~\ref  {subfig:ex_dist} shows the PDFs $p_x(x)$ and $f_x(x)$ which will be used to stochasticly evaluate the integral over the function $O(x)$. For this estimation, when using the inversion method, the CDF of both PDFs are needed, which are shown in Fig.~\ref  {subfig:ex_cdf} \vspace  *{5mm} \relax }}{9}{figure.caption.8}\protected@file@percent }
\newlabel{fig:ex_dist-cdf}{{2.1}{9}{Figure~\ref {subfig:ex_dist} shows the PDFs $p_x(x)$ and $f_x(x)$ which will be used to stochasticly evaluate the integral over the function $O(x)$. For this estimation, when using the inversion method, the CDF of both PDFs are needed, which are shown in Fig.~\ref {subfig:ex_cdf} \vspace *{5mm} \relax }{figure.caption.8}{}}
\@writefile{toc}{\defcounter {refsection}{0}\relax }\@writefile{toc}{\contentsline {section}{\numberline {2.3}Inversion method}{9}{section.2.3}\protected@file@percent }
\@writefile{toc}{\defcounter {refsection}{0}\relax }\@writefile{toc}{\contentsline {subsubsection}{\nonumberline Simple Example}{9}{section*.7}\protected@file@percent }
\newlabel{subfig:ex_amount}{{2.2a}{10}{histogram of random number $X$ with the dashed line showing the expected distribution of samples\relax }{figure.caption.9}{}}
\newlabel{sub@subfig:ex_amount}{{a}{10}{histogram of random number $X$ with the dashed line showing the expected distribution of samples\relax }{figure.caption.9}{}}
\newlabel{subfig:ex_mody}{{2.2b}{10}{transformed observable $\tilde {O}(x)$\relax }{figure.caption.9}{}}
\newlabel{sub@subfig:ex_mody}{{b}{10}{transformed observable $\tilde {O}(x)$\relax }{figure.caption.9}{}}
\@writefile{lof}{\defcounter {refsection}{0}\relax }\@writefile{lof}{\contentsline {figure}{\numberline {2.2}{\ignorespaces \relax }}{10}{figure.caption.9}\protected@file@percent }
\newlabel{fig:ex_amount-mody}{{2.2}{10}{\relax }{figure.caption.9}{}}
\newlabel{subfig:ex_mean}{{2.3a}{10}{importance sampling\relax }{figure.caption.10}{}}
\newlabel{sub@subfig:ex_mean}{{a}{10}{importance sampling\relax }{figure.caption.10}{}}
\newlabel{subfig:ex_meanNV}{{2.3b}{10}{uniformly distributed sampling\relax }{figure.caption.10}{}}
\newlabel{sub@subfig:ex_meanNV}{{b}{10}{uniformly distributed sampling\relax }{figure.caption.10}{}}
\@writefile{lof}{\defcounter {refsection}{0}\relax }\@writefile{lof}{\contentsline {figure}{\numberline {2.3}{\ignorespaces Deviation of the estimated expectation value $\mathinner {\langle {O}\rangle }$ from the exact value $o=40/2121$ as a function of the number of sampled used for $\mathinner {\langle {O}\rangle }$. Different graphs show different drawing sequences (runs). Note that the $\Delta O$-axis is scaled differently in both plots. \relax }}{10}{figure.caption.10}\protected@file@percent }
\newlabel{fig:ex_mean}{{2.3}{10}{Deviation of the estimated expectation value $\braket {O}$ from the exact value $o=40/2121$ as a function of the number of sampled used for $\braket {O}$. Different graphs show different drawing sequences (runs). Note that the $\Delta O$-axis is scaled differently in both plots. \relax }{figure.caption.10}{}}
\BKM@entry{id=6,dest={73656374696F6E2E322E34},srcline={292}}{4170706C69656420646973747269627574696F6E7320666F7220696D706F7274616E63652073616D706C696E67}
\@writefile{toc}{\defcounter {refsection}{0}\relax }\@writefile{toc}{\contentsline {section}{\numberline {2.4}Applied distributions for importance sampling}{11}{section.2.4}\protected@file@percent }
\@writefile{toc}{\defcounter {refsection}{0}\relax }\@writefile{toc}{\contentsline {subsubsection}{\nonumberline Uniform drawing}{11}{section*.11}\protected@file@percent }
\@writefile{toc}{\defcounter {refsection}{0}\relax }\@writefile{toc}{\contentsline {subsubsection}{\nonumberline Tracing}{11}{section*.12}\protected@file@percent }
\@writefile{toc}{\defcounter {refsection}{0}\relax }\@writefile{toc}{\contentsline {subsubsection}{\nonumberline Compound drawing}{11}{section*.13}\protected@file@percent }
\BKM@entry{id=7,dest={636861707465722E33},srcline={1}}{526573756C7473}
\BKM@entry{id=8,dest={73656374696F6E2E332E31},srcline={1}}{53746174697374696373}
\BKM@entry{id=9,dest={73756273656374696F6E2E332E312E31},srcline={6}}{496E74657276616C20657374696D6174696F6E}
\abx@aux@cite{book:11854}
\abx@aux@segm{0}{0}{book:11854}
\abx@aux@cite{AC08993515}
\abx@aux@segm{0}{0}{AC08993515}
\BKM@entry{id=10,dest={73756273656374696F6E2E332E312E32},srcline={54}}{53616D706C652056617269616E636520446973747269627574696F6E}
\@writefile{toc}{\defcounter {refsection}{0}\relax }\@writefile{toc}{\contentsline {chapter}{\numberline {3}Results}{13}{chapter.3}\protected@file@percent }
\@writefile{lof}{\defcounter {refsection}{0}\relax }\@writefile{lof}{\addvspace {10\p@ }}
\@writefile{lot}{\defcounter {refsection}{0}\relax }\@writefile{lot}{\addvspace {10\p@ }}
\@writefile{lol}{\defcounter {refsection}{0}\relax }\@writefile{lol}{\addvspace {10\p@ }}
\newlabel{ch:results}{{3}{13}{Results}{chapter.3}{}}
\@writefile{toc}{\defcounter {refsection}{0}\relax }\@writefile{toc}{\contentsline {section}{\numberline {3.1}Statistics}{13}{section.3.1}\protected@file@percent }
\@writefile{toc}{\defcounter {refsection}{0}\relax }\@writefile{toc}{\contentsline {subsection}{\numberline {3.1.1}Interval estimation}{13}{subsection.3.1.1}\protected@file@percent }
\newlabel{subsec:interval_est}{{3.1.1}{13}{Interval estimation}{subsection.3.1.1}{}}
\newlabel{eq:intervalEstimation}{{3.1}{13}{Interval estimation}{equation.3.1.1}{}}
\@writefile{toc}{\defcounter {refsection}{0}\relax }\@writefile{toc}{\contentsline {subsection}{\numberline {3.1.2}Sample Variance Distribution}{13}{subsection.3.1.2}\protected@file@percent }
\abx@aux@cite{ADictionaryofStatistics}
\abx@aux@segm{0}{0}{ADictionaryofStatistics}
\abx@aux@cite{book:981959}
\abx@aux@segm{0}{0}{book:981959}
\abx@aux@cite{book:13960}
\abx@aux@segm{0}{0}{book:13960}
\newlabel{eq:sampleVarianceDistribution}{{3.2}{14}{Sample Variance Distribution}{equation.3.1.2}{}}
\newlabel{eq:sampleVariance}{{3.3}{14}{Sample Variance Distribution}{equation.3.1.3}{}}
\newlabel{eq:varofsamplevar}{{3.4}{14}{Sample Variance Distribution}{equation.3.1.4}{}}
\BKM@entry{id=11,dest={73756273656374696F6E2E332E312E33},srcline={105}}{542D54657374}
\abx@aux@cite{100stattests}
\abx@aux@segm{0}{0}{100stattests}
\BKM@entry{id=12,dest={73656374696F6E2E332E32},srcline={9}}{46696E64696E6773}
\@writefile{toc}{\defcounter {refsection}{0}\relax }\@writefile{toc}{\contentsline {subsection}{\numberline {3.1.3}T-Test}{15}{subsection.3.1.3}\protected@file@percent }
\newlabel{subsec:t-test}{{3.1.3}{15}{T-Test}{subsection.3.1.3}{}}
\@writefile{toc}{\defcounter {refsection}{0}\relax }\@writefile{toc}{\contentsline {section}{\numberline {3.2}Findings}{15}{section.3.2}\protected@file@percent }
\@writefile{toc}{\defcounter {refsection}{0}\relax }\@writefile{toc}{\contentsline {subsubsection}{\nonumberline Method 1: uniform and compound drawing}{15}{section*.14}\protected@file@percent }
\@writefile{toc}{\defcounter {refsection}{0}\relax }\@writefile{toc}{\contentsline {subsubsection}{\nonumberline Method 2: tracing and compound drawing}{16}{section*.15}\protected@file@percent }
\@writefile{lot}{\defcounter {refsection}{0}\relax }\@writefile{lot}{\contentsline {table}{\numberline {3.1}{\ignorespaces  Results of three independet runs using various drawing sequences, with the exact contraction value is $\mu = 1.96197 \cdot 10^{-13}$ in arbitrary units. The coverage probability is $\gamma = 0.99$. The PDFs drawing sequence used are:  $\mathrm  {PDF}\left ( \mathrm  {Method 1} \right ) = \gamma _{G,A,I}(g) \gamma _{g}(a, i) \gamma _{F,B,J}(f) \gamma _{f}(b, j)$,  $\mathrm  {PDF}\left ( \mathrm  {Method 2} \right ) = \gamma _{G,A}(i) \gamma _{F,i}(a) \gamma _{a,I}(g) \gamma _{g}(b,j) \gamma _{b,j}(f)$,  $\mathrm  {PDF}\left ( \mathrm  {Method 3} \right ) = \gamma _{G,A,I}(a) \gamma _{F,a}(i) \gamma _{a, i}(g) \gamma _{g}(b, j) \gamma _{b, j}(f)$,  $\mathrm  {PDF}\left ( \mathrm  {Method 4} \right ) = \gamma _{G,A,I}(i) \gamma _{F,i}(a) \gamma _{a, I}(g) \gamma _{g}(b, j) \gamma _{b, j}(f)$. \relax }}{17}{table.3.1}\protected@file@percent }
\newlabel{tab:results}{{3.1}{17}{Results of three independet runs using various drawing sequences, with the exact contraction value is $\mu = 1.96197 \cdot 10^{-13}$ in arbitrary units. The coverage probability is $\gamma = 0.99$. The PDFs drawing sequence used are:\\ $\PDFt {Method 1} = \gamma _{G,A,I}(g) \gamma _{g}(a, i) \gamma _{F,B,J}(f) \gamma _{f}(b, j)$,\\ $\PDFt {Method 2} = \gamma _{G,A}(i) \gamma _{F,i}(a) \gamma _{a,I}(g) \gamma _{g}(b,j) \gamma _{b,j}(f)$,\\ $\PDFt {Method 3} = \gamma _{G,A,I}(a) \gamma _{F,a}(i) \gamma _{a, i}(g) \gamma _{g}(b, j) \gamma _{b, j}(f)$,\\ $\PDFt {Method 4} = \gamma _{G,A,I}(i) \gamma _{F,i}(a) \gamma _{a, I}(g) \gamma _{g}(b, j) \gamma _{b, j}(f)$. \relax }{table.3.1}{}}
\newlabel{subfig:mean-uccucc}{{3.1a}{18}{Method 1\relax }{figure.caption.16}{}}
\newlabel{sub@subfig:mean-uccucc}{{a}{18}{Method 1\relax }{figure.caption.16}{}}
\newlabel{subfig:mean_lim-uccucc}{{3.1b}{18}{Method 1, enlarged Fig.~\ref {subfig:mean-uccucc}\relax }{figure.caption.16}{}}
\newlabel{sub@subfig:mean_lim-uccucc}{{b}{18}{Method 1, enlarged Fig.~\ref {subfig:mean-uccucc}\relax }{figure.caption.16}{}}
\newlabel{subfig:mean-ttTccc}{{3.1c}{18}{Method 2\relax }{figure.caption.16}{}}
\newlabel{sub@subfig:mean-ttTccc}{{c}{18}{Method 2\relax }{figure.caption.16}{}}
\newlabel{subfig:mean_lim-ttTccc}{{3.1d}{18}{Method 2, enlarged Fig.~\ref {subfig:mean-ttTccc}\relax }{figure.caption.16}{}}
\newlabel{sub@subfig:mean_lim-ttTccc}{{d}{18}{Method 2, enlarged Fig.~\ref {subfig:mean-ttTccc}\relax }{figure.caption.16}{}}
\@writefile{lof}{\defcounter {refsection}{0}\relax }\@writefile{lof}{\contentsline {figure}{\numberline {3.1}{\ignorespaces The estimated contraction value as a function of the relative number of samples used for $\mathinner {\langle {E^\mathrm  {MP2,1}}\rangle }$ compared the number of total terms to sum. The dashed line indicates the true mean $\mu = 1.96197 \cdot 10^{-13}$ in arbitrary units. \relax }}{18}{figure.caption.16}\protected@file@percent }
\newlabel{fig:mean}{{3.1}{18}{The estimated contraction value as a function of the relative number of samples used for $\braket {E^\mathrm {MP2,1}}$ compared the number of total terms to sum. The dashed line indicates the true mean $\mu = 1.96197 \cdot 10^{-13}$ in arbitrary units. \relax }{figure.caption.16}{}}
\newlabel{subfig:meanIntervallUnderest-uccucc-ttTccc-2}{{3.2a}{19}{For a better comparison a single run from method 1 and 2 have been combined into one plot.\relax }{figure.caption.17}{}}
\newlabel{sub@subfig:meanIntervallUnderest-uccucc-ttTccc-2}{{a}{19}{For a better comparison a single run from method 1 and 2 have been combined into one plot.\relax }{figure.caption.17}{}}
\newlabel{subfig:meanIntervallEstZoomLim-uccucc-ttTccc-2}{{3.2b}{19}{Fig.~\ref {subfig:meanIntervallUnderest-uccucc-ttTccc-2} enlarged\relax }{figure.caption.17}{}}
\newlabel{sub@subfig:meanIntervallEstZoomLim-uccucc-ttTccc-2}{{b}{19}{Fig.~\ref {subfig:meanIntervallUnderest-uccucc-ttTccc-2} enlarged\relax }{figure.caption.17}{}}
\@writefile{lof}{\defcounter {refsection}{0}\relax }\@writefile{lof}{\contentsline {figure}{\numberline {3.2}{\ignorespaces The estimated contraction value with the corresponding confidence intervals, estimated according to Eq.~\textup  {\hbox {\mathsurround \z@ \normalfont  (\ignorespaces \ref  {eq:intervalEstimation}\unskip \@@italiccorr )}}, as a function of the relative number of samples used for $\mathinner {\langle {E^\mathrm  {MP2,1}}\rangle }$ compared to the number of total terms to sum with the true mean $\mu = 1.96197 \cdot 10^{-13} $ in arbitrary units. The diagram on the right side takes the variance of the sample variance into account and shows a gray line proportional to $1 / \sqrt  {M}$, indicating that the estimate of the variance is well converged. \relax }}{19}{figure.caption.17}\protected@file@percent }
\newlabel{fig:meanIntervall}{{3.2}{19}{The estimated contraction value with the corresponding confidence intervals, estimated according to Eq.~\eqref {eq:intervalEstimation}, as a function of the relative number of samples used for $\braket {E^\mathrm {MP2,1}}$ compared to the number of total terms to sum with the true mean $\mu = 1.96197 \cdot 10^{-13} $ in arbitrary units. The diagram on the right side takes the variance of the sample variance into account and shows a gray line proportional to $1 / \sqrt {M}$, indicating that the estimate of the variance is well converged. \relax }{figure.caption.17}{}}
\@writefile{lof}{\defcounter {refsection}{0}\relax }\@writefile{lof}{\contentsline {figure}{\numberline {3.3}{\ignorespaces The estimated variance from method 1 and 2, according to Eq.~\textup  {\hbox {\mathsurround \z@ \normalfont  (\ignorespaces \ref  {eq:sampleVariance}\unskip \@@italiccorr )}}, as a function of the number of sampled used for $\mathinner {\langle {E^\mathrm  {MP2,1}}\rangle }$ over the number of total entries in the tensor. Note that the $y$-axis is logarithmic. \relax }}{19}{figure.caption.18}\protected@file@percent }
\newlabel{fig:variance-uccucc-ttTccc}{{3.3}{19}{The estimated variance from method 1 and 2, according to Eq.~\eqref {eq:sampleVariance}, as a function of the number of sampled used for $\braket {E^\mathrm {MP2,1}}$ over the number of total entries in the tensor. Note that the $y$-axis is logarithmic. \relax }{figure.caption.18}{}}
\newlabel{subfig:t-Test-uccucc}{{3.4a}{20}{Method 1\relax }{figure.caption.19}{}}
\newlabel{sub@subfig:t-Test-uccucc}{{a}{20}{Method 1\relax }{figure.caption.19}{}}
\newlabel{subfig:t-Test-ttTccc}{{3.4b}{20}{Method 2\relax }{figure.caption.19}{}}
\newlabel{sub@subfig:t-Test-ttTccc}{{b}{20}{Method 2\relax }{figure.caption.19}{}}
\@writefile{lof}{\defcounter {refsection}{0}\relax }\@writefile{lof}{\contentsline {figure}{\numberline {3.4}{\ignorespaces T-test: The fact that $T$ does not exceed the upper $t _ { M - 1 ; \frac  {1-\gamma }{2} }$ or lower limit $-t _ { M - 1 ; \frac  {1-\gamma }{2} }$, as described in \ref  {subsec:t-test}, suggests that the contraction value is correctly estimated. The probabilit of failure $\alpha $ used is equal to $0.01$.\relax }}{20}{figure.caption.19}\protected@file@percent }
\newlabel{fig:t-Test}{{3.4}{20}{T-test: The fact that $T$ does not exceed the upper $t _ { M - 1 ; \frac {1-\gamma }{2} }$ or lower limit $-t _ { M - 1 ; \frac {1-\gamma }{2} }$, as described in \ref {subsec:t-test}, suggests that the contraction value is correctly estimated. The probabilit of failure $\alpha $ used is equal to $0.01$.\relax }{figure.caption.19}{}}
\@writefile{toc}{\defcounter {refsection}{0}\relax }\@writefile{toc}{\contentsline {subsubsection}{\nonumberline Conclusion}{20}{section*.20}\protected@file@percent }
\abx@aux@cite{Person1}
\abx@aux@segm{0}{0}{Person1}
\abx@aux@cite{Person2}
\abx@aux@segm{0}{0}{Person2}
\newlabel{chap:ack}{{3.2}{21}{Acknowledgments}{chapter*.21}{}}
\BKM@entry{id=13,dest={617070656E6469782E41},srcline={1}}{5365636F6E642D6F7264657220487567656E686F6C747A206469616772616D}
\abx@aux@cite{AC00655843}
\abx@aux@segm{0}{0}{AC00655843}
\@writefile{toc}{\defcounter {refsection}{0}\relax }\@writefile{toc}{\contentsline {chapter}{\numberline {A}Second-order Hugenholtz diagram}{22}{appendix.A}\protected@file@percent }
\@writefile{lof}{\defcounter {refsection}{0}\relax }\@writefile{lof}{\addvspace {10\p@ }}
\@writefile{lot}{\defcounter {refsection}{0}\relax }\@writefile{lot}{\addvspace {10\p@ }}
\@writefile{lol}{\defcounter {refsection}{0}\relax }\@writefile{lol}{\addvspace {10\p@ }}
\newlabel{app:HugenholtzDiag}{{A}{22}{Second-order Hugenholtz diagram}{appendix.A}{}}
\newlabel{eq:hugenholtz_simplified1}{{A.4}{23}{Second-order Hugenholtz diagram}{equation.A.0.4}{}}
\abx@aux@cite{AC00655843}
\abx@aux@segm{0}{0}{AC00655843}
\BKM@entry{id=14,dest={617070656E6469782E42},srcline={1}}{5365636F6E642D6F7264657220476F6C6473746F6E65206469616772616D}
\abx@aux@cite{AC00655843}
\abx@aux@segm{0}{0}{AC00655843}
\@writefile{toc}{\defcounter {refsection}{0}\relax }\@writefile{toc}{\contentsline {chapter}{\numberline {B}Second-order Goldstone diagram}{25}{appendix.B}\protected@file@percent }
\@writefile{lof}{\defcounter {refsection}{0}\relax }\@writefile{lof}{\addvspace {10\p@ }}
\@writefile{lot}{\defcounter {refsection}{0}\relax }\@writefile{lot}{\addvspace {10\p@ }}
\@writefile{lol}{\defcounter {refsection}{0}\relax }\@writefile{lol}{\addvspace {10\p@ }}
\newlabel{app:GoldstoneDiag}{{B}{25}{Second-order Goldstone diagram}{appendix.B}{}}
\abx@aux@cite{AC00655843}
\abx@aux@segm{0}{0}{AC00655843}
\BKM@entry{id=15,dest={636861707465722A2E3235},srcline={76}}{4269626C696F677261706879}
\@writefile{toc}{\defcounter {refsection}{0}\relax }\@writefile{toc}{\contentsline {chapter}{\nonumberline Bibliography}{i}{chapter*.25}\protected@file@percent }
\@writefile{lof}{\defcounter {refsection}{0}\relax }\@writefile{lof}{\addvspace {10\p@ }}
\@writefile{lot}{\defcounter {refsection}{0}\relax }\@writefile{lot}{\addvspace {10\p@ }}
\@writefile{lol}{\defcounter {refsection}{0}\relax }\@writefile{lol}{\addvspace {10\p@ }}
\abx@aux@refcontextdefaultsdone
\abx@aux@defaultrefcontext{0}{Person1}{nty/global//global/global}
\abx@aux@defaultrefcontext{0}{HandbookMCMC}{nty/global//global/global}
\abx@aux@defaultrefcontext{0}{book:981959}{nty/global//global/global}
\abx@aux@defaultrefcontext{0}{AC00103169}{nty/global//global/global}
\abx@aux@defaultrefcontext{0}{Person2}{nty/global//global/global}
\abx@aux@defaultrefcontext{0}{AC02445899}{nty/global//global/global}
\abx@aux@defaultrefcontext{0}{doi:10.1063/1.4977994}{nty/global//global/global}
\abx@aux@defaultrefcontext{0}{100stattests}{nty/global//global/global}
\abx@aux@defaultrefcontext{0}{doi:10.1021/ct5001268}{nty/global//global/global}
\abx@aux@defaultrefcontext{0}{book:13960}{nty/global//global/global}
\abx@aux@defaultrefcontext{0}{book:11854}{nty/global//global/global}
\abx@aux@defaultrefcontext{0}{AC08207698}{nty/global//global/global}
\abx@aux@defaultrefcontext{0}{AC08993515}{nty/global//global/global}
\abx@aux@defaultrefcontext{0}{rubinstein}{nty/global//global/global}
\abx@aux@defaultrefcontext{0}{AC00655843}{nty/global//global/global}
\abx@aux@defaultrefcontext{0}{AC02552795}{nty/global//global/global}
\abx@aux@defaultrefcontext{0}{ADictionaryofStatistics}{nty/global//global/global}
\global\csname @altsecnumformattrue\endcsname
\global\@namedef{scr@dte@chapter@lastmaxnumwidth}{18.10382pt}
\global\@namedef{scr@dte@section@lastmaxnumwidth}{22.97206pt}
\global\@namedef{scr@dte@subsection@lastmaxnumwidth}{32.1087pt}
