(-1.98298e-07,4.92733e-06)
(-1.98298e-07,-4.92733e-06)
maxi: 299007737856
maxID: [534][32][32][534][32][32] 
nbrOfSamples = 9343991808
0%: mean: 8.74537e-15 ,    variance: 1.45105e-28
 var_var: -3.71724e-57
2%: mean: 1.87977e-13 ,    variance: 1.24269e-20
 var_var: 6.1693e-43
4%: mean: 1.9083e-13 ,    variance: 1.24363e-20
 var_var: 5.35512e-43
6%: mean: 1.91371e-13 ,    variance: 1.31424e-20
 var_var: 9.39229e-43
8%: mean: 1.9304e-13 ,    variance: 1.29577e-20
 var_var: 5.72523e-43
10%: mean: 1.94079e-13 ,    variance: 1.3298e-20
 var_var: 6.26724e-43
12%: mean: 1.95487e-13 ,    variance: 1.33309e-20
 var_var: 4.6112e-43
14%: mean: 1.95062e-13 ,    variance: 1.30879e-20
 var_var: 3.45938e-43
16%: mean: 1.94756e-13 ,    variance: 1.30305e-20
 var_var: 2.80247e-43
18%: mean: 1.94263e-13 ,    variance: 1.29172e-20
 var_var: 2.31259e-43
20%: mean: 1.93383e-13 ,    variance: 1.28374e-20
 var_var: 1.94604e-43
22%: mean: 1.94057e-13 ,    variance: 1.28786e-20
 var_var: 1.72937e-43
24%: mean: 1.9439e-13 ,    variance: 1.29343e-20
 var_var: 1.52626e-43
26%: mean: 1.94132e-13 ,    variance: 1.28879e-20
 var_var: 1.34666e-43
28%: mean: 1.94115e-13 ,    variance: 1.28879e-20
 var_var: 1.20231e-43
30%: mean: 1.9419e-13 ,    variance: 1.28661e-20
 var_var: 1.08104e-43
32%: mean: 1.93857e-13 ,    variance: 1.27681e-20
 var_var: 9.76992e-44
34%: mean: 1.93926e-13 ,    variance: 1.28025e-20
 var_var: 8.95993e-44
36%: mean: 1.9454e-13 ,    variance: 1.28276e-20
 var_var: 8.38386e-44
38%: mean: 1.95021e-13 ,    variance: 1.28814e-20
 var_var: 7.84659e-44
40%: mean: 1.95175e-13 ,    variance: 1.29439e-20
 var_var: 7.58139e-44
42%: mean: 1.95479e-13 ,    variance: 1.30315e-20
 var_var: 7.37228e-44
44%: mean: 1.96126e-13 ,    variance: 1.30865e-20
 var_var: 7.14995e-44
46%: mean: 1.96359e-13 ,    variance: 1.30448e-20
 var_var: 6.62256e-44
48%: mean: 1.95726e-13 ,    variance: 1.30147e-20
 var_var: 6.20658e-44
50%: mean: 1.95968e-13 ,    variance: 1.30189e-20
 var_var: 5.88403e-44
52%: mean: 1.96299e-13 ,    variance: 1.30434e-20
 var_var: 5.59552e-44
54%: mean: 1.96022e-13 ,    variance: 1.30598e-20
 var_var: 5.30859e-44
56%: mean: 1.96406e-13 ,    variance: 1.3087e-20
 var_var: 5.12234e-44
58%: mean: 1.96674e-13 ,    variance: 1.31142e-20
 var_var: 4.88467e-44
60%: mean: 1.96492e-13 ,    variance: 1.30868e-20
 var_var: 4.62027e-44
62%: mean: 1.9634e-13 ,    variance: 1.30392e-20
 var_var: 4.37208e-44
64%: mean: 1.96714e-13 ,    variance: 1.30387e-20
 var_var: 4.18584e-44
66%: mean: 1.96625e-13 ,    variance: 1.3031e-20
 var_var: 4.06189e-44
68%: mean: 1.96885e-13 ,    variance: 1.30263e-20
 var_var: 3.90303e-44
70%: mean: 1.97084e-13 ,    variance: 1.30529e-20
 var_var: 3.81215e-44
72%: mean: 1.9712e-13 ,    variance: 1.30533e-20
 var_var: 3.66965e-44
74%: mean: 1.96822e-13 ,    variance: 1.30722e-20
 var_var: 3.66151e-44
76%: mean: 1.9661e-13 ,    variance: 1.30498e-20
 var_var: 3.51363e-44
78%: mean: 1.97017e-13 ,    variance: 1.30825e-20
 var_var: 3.40728e-44
80%: mean: 1.9695e-13 ,    variance: 1.30391e-20
 var_var: 3.26805e-44
82%: mean: 1.9708e-13 ,    variance: 1.30491e-20
 var_var: 3.17345e-44
84%: mean: 1.97211e-13 ,    variance: 1.30338e-20
 var_var: 3.06489e-44
86%: mean: 1.97196e-13 ,    variance: 1.30371e-20
 var_var: 2.96443e-44
88%: mean: 1.97151e-13 ,    variance: 1.30234e-20
 var_var: 2.89528e-44
90%: mean: 1.97191e-13 ,    variance: 1.304e-20
 var_var: 2.84415e-44
92%: mean: 1.97361e-13 ,    variance: 1.30432e-20
 var_var: 2.79126e-44
94%: mean: 1.97294e-13 ,    variance: 1.30478e-20
 var_var: 2.71879e-44
96%: mean: 1.97204e-13 ,    variance: 1.30506e-20
 var_var: 2.65804e-44
98%: mean: 1.97085e-13 ,    variance: 1.3051e-20
 var_var: 2.58008e-44
100%: mean: 1.97168e-13 ,    variance: 1.30548e-20
 var_var: 2.50979e-44
