(-1.98298e-07,4.92733e-06)
(-1.98298e-07,-4.92733e-06)
maxi: 299007737856
maxID: [534][32][32][534][32][32] 
nbrOfSamples = 9343991808
0%: mean: 1.14138e-13 ,    variance: 1.66095e-25
 var_var: -1.02181e-50
2%: mean: 1.96702e-13 ,    variance: 6.47681e-22
 var_var: 2.69776e-47
4%: mean: 1.95391e-13 ,    variance: 6.48102e-22
 var_var: 1.49297e-47
6%: mean: 1.95065e-13 ,    variance: 6.45336e-22
 var_var: 9.74316e-48
8%: mean: 1.95815e-13 ,    variance: 6.44307e-22
 var_var: 7.14613e-48
10%: mean: 1.96203e-13 ,    variance: 6.44245e-22
 var_var: 5.67707e-48
12%: mean: 1.95899e-13 ,    variance: 6.42615e-22
 var_var: 4.69275e-48
14%: mean: 1.95676e-13 ,    variance: 6.41428e-22
 var_var: 3.96735e-48
16%: mean: 1.95551e-13 ,    variance: 6.41411e-22
 var_var: 3.471e-48
18%: mean: 1.95581e-13 ,    variance: 6.4132e-22
 var_var: 3.07619e-48
20%: mean: 1.95806e-13 ,    variance: 6.42015e-22
 var_var: 2.81665e-48
22%: mean: 1.95821e-13 ,    variance: 6.42425e-22
 var_var: 2.59386e-48
24%: mean: 1.95583e-13 ,    variance: 6.42995e-22
 var_var: 2.3869e-48
26%: mean: 1.95778e-13 ,    variance: 6.43314e-22
 var_var: 2.22231e-48
28%: mean: 1.95883e-13 ,    variance: 6.43627e-22
 var_var: 2.09006e-48
30%: mean: 1.95763e-13 ,    variance: 6.43319e-22
 var_var: 1.94697e-48
32%: mean: 1.95729e-13 ,    variance: 6.43059e-22
 var_var: 1.83194e-48
34%: mean: 1.95726e-13 ,    variance: 6.43263e-22
 var_var: 1.72263e-48
36%: mean: 1.95885e-13 ,    variance: 6.43827e-22
 var_var: 1.62531e-48
38%: mean: 1.95921e-13 ,    variance: 6.44245e-22
 var_var: 1.55503e-48
40%: mean: 1.9596e-13 ,    variance: 6.443e-22
 var_var: 1.47403e-48
42%: mean: 1.95899e-13 ,    variance: 6.44333e-22
 var_var: 1.41234e-48
44%: mean: 1.95935e-13 ,    variance: 6.44555e-22
 var_var: 1.34995e-48
46%: mean: 1.95854e-13 ,    variance: 6.44644e-22
 var_var: 1.28966e-48
48%: mean: 1.9588e-13 ,    variance: 6.44624e-22
 var_var: 1.23558e-48
50%: mean: 1.95927e-13 ,    variance: 6.44593e-22
 var_var: 1.18495e-48
52%: mean: 1.95933e-13 ,    variance: 6.44805e-22
 var_var: 1.1395e-48
54%: mean: 1.9595e-13 ,    variance: 6.44656e-22
 var_var: 1.09289e-48
56%: mean: 1.95971e-13 ,    variance: 6.4477e-22
 var_var: 1.05744e-48
58%: mean: 1.95914e-13 ,    variance: 6.44674e-22
 var_var: 1.01916e-48
60%: mean: 1.95955e-13 ,    variance: 6.44822e-22
 var_var: 9.81361e-49
62%: mean: 1.95886e-13 ,    variance: 6.4473e-22
 var_var: 9.4758e-49
64%: mean: 1.95859e-13 ,    variance: 6.44946e-22
 var_var: 9.20326e-49
66%: mean: 1.95781e-13 ,    variance: 6.44882e-22
 var_var: 8.9001e-49
68%: mean: 1.95767e-13 ,    variance: 6.44974e-22
 var_var: 8.6668e-49
70%: mean: 1.95754e-13 ,    variance: 6.45209e-22
 var_var: 8.42405e-49
72%: mean: 1.95752e-13 ,    variance: 6.45017e-22
 var_var: 8.16014e-49
74%: mean: 1.95701e-13 ,    variance: 6.44926e-22
 var_var: 7.91404e-49
76%: mean: 1.957e-13 ,    variance: 6.45001e-22
 var_var: 7.73265e-49
78%: mean: 1.95784e-13 ,    variance: 6.45156e-22
 var_var: 7.52981e-49
80%: mean: 1.95748e-13 ,    variance: 6.45069e-22
 var_var: 7.3204e-49
82%: mean: 1.95781e-13 ,    variance: 6.45066e-22
 var_var: 7.13967e-49
84%: mean: 1.95783e-13 ,    variance: 6.45235e-22
 var_var: 6.97007e-49
86%: mean: 1.95828e-13 ,    variance: 6.45371e-22
 var_var: 6.80914e-49
88%: mean: 1.95839e-13 ,    variance: 6.45615e-22
 var_var: 6.6674e-49
90%: mean: 1.95878e-13 ,    variance: 6.45824e-22
 var_var: 6.52159e-49
92%: mean: 1.95856e-13 ,    variance: 6.45996e-22
 var_var: 6.41816e-49
94%: mean: 1.95856e-13 ,    variance: 6.45979e-22
 var_var: 6.27259e-49
96%: mean: 1.95889e-13 ,    variance: 6.46026e-22
 var_var: 6.13143e-49
98%: mean: 1.95905e-13 ,    variance: 6.45965e-22
 var_var: 6.00047e-49
100%: mean: 1.95916e-13 ,    variance: 6.45829e-22
 var_var: 5.87473e-49
