[
 [uccucc 1.96547e-13 3.4999999999999346e-16 3.14997e-21 3.14997  4.230364962498441e-15]
 [uccucc 1.97727e-13 1.5299999999999945e-15 3.18328e-21 3.1832800000000003 4.252673569271355e-15]
 [uccucc 1.97326e-13 1.1289999999999945e-15 3.1889e-21 3.1889000000000003 4.2564259074318045e-15]

 [tttccc 1.96107e-13 -9.000000000000265e-17 9.65759e-23 0.0965759 7.407284232136486e-16]
 [tttccc 1.96233e-13 3.600000000000611e-17 9.65554e-23 0.0965554 7.40649802467783e-16]
 [tttccc 1.95929e-13 -2.6799999999998937e-16 9.68619e-23 0.0968619 7.418244094734952e-16]

 [ttuccc 1.9624e-13 4.3000000000007996e-17 1.12722e-22 0.112722  8.002560581500247e-16]
 [ttuccc 1.96281e-13 8.399999999999742e-17 1.12734e-22 0.11273400000000001 8.002986532828907e-16]
 [ttuccc 1.96118e-13 -7.899999999998886e-17 1.1234e-22 0.11234 7.988989262397052e-16]

 [cutccc 1.96118e-13 -7.899999999998886e-17 6.07153e-23 0.06071530000000001 5.873185261797111e-16]
 [cutccc 1.96324e-13 1.2700000000000542e-16 6.07999e-23 0.06079990000000001 5.877275651780212e-16]
 [cutccc 1.96584e-13 3.8699999999999623e-16 6.08224e-23 0.060822400000000006 5.878363042303496e-16]
]
