\relax 
\providecommand\hyper@newdestlabel[2]{}
\providecommand*\new@tpo@label[2]{}
\providecommand\HyperFirstAtBeginDocument{\AtBeginDocument}
\HyperFirstAtBeginDocument{\ifx\hyper@anchor\@undefined
\global\let\oldcontentsline\contentsline
\gdef\contentsline#1#2#3#4{\oldcontentsline{#1}{#2}{#3}}
\global\let\oldnewlabel\newlabel
\gdef\newlabel#1#2{\newlabelxx{#1}#2}
\gdef\newlabelxx#1#2#3#4#5#6{\oldnewlabel{#1}{{#2}{#3}}}
\AtEndDocument{\ifx\hyper@anchor\@undefined
\let\contentsline\oldcontentsline
\let\newlabel\oldnewlabel
\fi}
\fi}
\global\let\hyper@last\relax 
\gdef\HyperFirstAtBeginDocument#1{#1}
\providecommand\HyField@AuxAddToFields[1]{}
\providecommand\HyField@AuxAddToCoFields[2]{}
\providecommand\BKM@entry[2]{}
\abx@aux@refcontext{nty/global//global/global}
\catcode `"\active 
\abx@aux@cite{Person1}
\abx@aux@segm{0}{0}{Person1}
\abx@aux@cite{Person2}
\abx@aux@segm{0}{0}{Person2}
\@writefile{toc}{\boolfalse {citerequest}\boolfalse {citetracker}\boolfalse {pagetracker}\boolfalse {backtracker}\relax }
\@writefile{lof}{\boolfalse {citerequest}\boolfalse {citetracker}\boolfalse {pagetracker}\boolfalse {backtracker}\relax }
\@writefile{lot}{\boolfalse {citerequest}\boolfalse {citetracker}\boolfalse {pagetracker}\boolfalse {backtracker}\relax }
\babel@aux{german}{}
\abx@aux@segm{0}{0}{Person1}
\abx@aux@segm{0}{0}{Person2}
\babel@aux{german}{}
\babel@aux{english}{}
\BKM@entry{id=1,dest={636861707465722E31},srcline={1}}{496E74726F64756374696F6E}
\@writefile{toc}{\defcounter {refsection}{0}\relax }\@writefile{toc}{\contentsline {chapter}{\numberline {1}Introduction}{1}{chapter.1}\protected@file@percent }
\@writefile{lof}{\defcounter {refsection}{0}\relax }\@writefile{lof}{\addvspace {10\p@ }}
\@writefile{lot}{\defcounter {refsection}{0}\relax }\@writefile{lot}{\addvspace {10\p@ }}
\@writefile{lol}{\defcounter {refsection}{0}\relax }\@writefile{lol}{\addvspace {10\p@ }}
\newlabel{ch:intro}{{1}{1}{Introduction}{chapter.1}{}}
\newlabel{eq:Emp2}{{1.1}{1}{Introduction}{equation.1.0.1}{}}
\newlabel{eq:Vabij}{{1.2}{1}{Introduction}{equation.1.0.2}{}}
\newlabel{eq:Emp2exp}{{1.3}{1}{Introduction}{equation.1.0.3}{}}
\abx@aux@cite{doi:10.1063/1.4977994}
\abx@aux@segm{0}{0}{doi:10.1063/1.4977994}
\@writefile{lof}{\defcounter {refsection}{0}\relax }\@writefile{lof}{\contentsline {figure}{\numberline {1.1}{\ignorespaces Hugenholtz diagram of MP2\relax }}{2}{figure.caption.4}\protected@file@percent }
\providecommand*\caption@xref[2]{\@setref\relax\@undefined{#1}}
\newlabel{fig:H_ord2}{{1.1}{2}{Hugenholtz diagram of MP2\relax }{figure.caption.4}{}}
\@writefile{lof}{\defcounter {refsection}{0}\relax }\@writefile{lof}{\contentsline {figure}{\numberline {1.2}{\ignorespaces All second order Goldstone diagrams in M{\o }ller--Plesset perturbation theory.\relax }}{2}{figure.caption.5}\protected@file@percent }
\newlabel{fig:G_ord2}{{1.2}{2}{All second order Goldstone diagrams in M{\o }ller--Plesset perturbation theory.\relax }{figure.caption.5}{}}
\@writefile{lof}{\defcounter {refsection}{0}\relax }\@writefile{lof}{\contentsline {subfigure}{\numberline{(a)}{\ignorespaces {direct term}}}{2}{figure.caption.5}\protected@file@percent }
\@writefile{lof}{\defcounter {refsection}{0}\relax }\@writefile{lof}{\contentsline {subfigure}{\numberline{(b)}{\ignorespaces {exchange term}}}{2}{figure.caption.5}\protected@file@percent }
\newlabel{eq:Emp2n}{{1.4}{2}{Introduction}{equation.1.0.4}{}}
\newlabel{eq:Emp21_tildegamma}{{1.5}{3}{Introduction}{equation.1.0.5}{}}
\newlabel{eq:Emp22_tildegamma}{{1.6}{3}{Introduction}{equation.1.0.6}{}}
\newlabel{eq:Emp21_gamma}{{1.8}{3}{Introduction}{equation.1.0.8}{}}
\newlabel{eq:Emp22_gamma}{{1.9}{3}{Introduction}{equation.1.0.9}{}}
\@writefile{lof}{\defcounter {refsection}{0}\relax }\@writefile{lof}{\contentsline {figure}{\numberline {1.3}{\ignorespaces tensor network representations of Equations \textup  {\hbox {\mathsurround \z@ \normalfont  (\ignorespaces \ref  {eq:Emp21_gamma}\unskip \@@italiccorr )}} and \textup  {\hbox {\mathsurround \z@ \normalfont  (\ignorespaces \ref  {eq:Emp22_gamma}\unskip \@@italiccorr )}}\relax }}{4}{figure.caption.6}\protected@file@percent }
\newlabel{fig:tennet}{{1.3}{4}{tensor network representations of Equations \eqref {eq:Emp21_gamma} and \eqref {eq:Emp22_gamma}\relax }{figure.caption.6}{}}
\@writefile{lof}{\defcounter {refsection}{0}\relax }\@writefile{lof}{\contentsline {subfigure}{\numberline{(a)}{\ignorespaces {$E^{\mathrm {MP2,1}}$}}}{4}{figure.caption.6}\protected@file@percent }
\@writefile{lof}{\defcounter {refsection}{0}\relax }\@writefile{lof}{\contentsline {subfigure}{\numberline{(b)}{\ignorespaces {$E^{\mathrm {MP2,2}}$}}}{4}{figure.caption.6}\protected@file@percent }
\BKM@entry{id=2,dest={636861707465722E32},srcline={1}}{53746F63686173746963206576616C756174696F6E206F662074656E736F72206E6574776F726B73}
\BKM@entry{id=3,dest={73656374696F6E2E322E31},srcline={6}}{4D6F6E74652D4361726C6F206576616C756174696F6E}
\@writefile{toc}{\defcounter {refsection}{0}\relax }\@writefile{toc}{\contentsline {chapter}{\numberline {2}Stochastic evaluation of tensor networks}{5}{chapter.2}\protected@file@percent }
\@writefile{lof}{\defcounter {refsection}{0}\relax }\@writefile{lof}{\addvspace {10\p@ }}
\@writefile{lot}{\defcounter {refsection}{0}\relax }\@writefile{lot}{\addvspace {10\p@ }}
\@writefile{lol}{\defcounter {refsection}{0}\relax }\@writefile{lol}{\addvspace {10\p@ }}
\newlabel{ch:stocheval}{{2}{5}{Stochastic evaluation of tensor networks}{chapter.2}{}}
\@writefile{toc}{\defcounter {refsection}{0}\relax }\@writefile{toc}{\contentsline {section}{\numberline {2.1}Monte-Carlo evaluation}{5}{section.2.1}\protected@file@percent }
\newlabel{eq:PDF_normalized}{{2.4}{6}{Monte-Carlo evaluation}{equation.2.1.4}{}}
\newlabel{eq:1stMoment}{{2.7}{6}{Monte-Carlo evaluation}{equation.2.1.7}{}}
\newlabel{eq:var}{{2.9}{6}{Monte-Carlo evaluation}{equation.2.1.9}{}}
\BKM@entry{id=4,dest={73656374696F6E2E322E32},srcline={107}}{496D706F7274616E63652073616D706C696E67}
\newlabel{eq:expVal_var_est}{{2.12}{7}{Monte-Carlo evaluation}{equation.2.1.12}{}}
\@writefile{toc}{\defcounter {refsection}{0}\relax }\@writefile{toc}{\contentsline {section}{\numberline {2.2}Importance sampling}{7}{section.2.2}\protected@file@percent }
\newlabel{sec:importanceSampling}{{2.2}{7}{Importance sampling}{section.2.2}{}}
\newlabel{eq:exVal_is}{{2.13}{7}{Importance sampling}{equation.2.2.13}{}}
\abx@aux@cite{AC02552795}
\abx@aux@segm{0}{0}{AC02552795}
\abx@aux@cite{AC02445899}
\abx@aux@segm{0}{0}{AC02445899}
\abx@aux@cite{AC00103169}
\abx@aux@segm{0}{0}{AC00103169}
\abx@aux@cite{rubinstein}
\abx@aux@segm{0}{0}{rubinstein}
\abx@aux@cite{AC08207698}
\abx@aux@segm{0}{0}{AC08207698}
\abx@aux@cite{HandbookMCMC}
\abx@aux@segm{0}{0}{HandbookMCMC}
\BKM@entry{id=5,dest={73656374696F6E2E322E33},srcline={152}}{496E76657273696F6E206D6574686F64}
\@writefile{toc}{\defcounter {refsection}{0}\relax }\@writefile{toc}{\contentsline {section}{\numberline {2.3}Inversion method}{8}{section.2.3}\protected@file@percent }
\@writefile{toc}{\defcounter {refsection}{0}\relax }\@writefile{toc}{\contentsline {subsubsection}{\nonumberline Simple Example}{9}{section*.7}\protected@file@percent }
\@writefile{lof}{\defcounter {refsection}{0}\relax }\@writefile{lof}{\contentsline {figure}{\numberline {2.1}{\ignorespaces \relax }}{9}{figure.caption.8}\protected@file@percent }
\newlabel{fig:ex_dist-cdf}{{2.1}{9}{\relax }{figure.caption.8}{}}
\BKM@entry{id=6,dest={73656374696F6E2E322E34},srcline={205}}{4170706C69656420646973747269627574696F6E7320666F7220696D706F7274616E63652073616D706C696E67}
\@writefile{lof}{\defcounter {refsection}{0}\relax }\@writefile{lof}{\contentsline {figure}{\numberline {2.2}{\ignorespaces \relax }}{10}{figure.caption.9}\protected@file@percent }
\newlabel{fig:ex_amount-mody}{{2.2}{10}{\relax }{figure.caption.9}{}}
\@writefile{lof}{\defcounter {refsection}{0}\relax }\@writefile{lof}{\contentsline {figure}{\numberline {2.3}{\ignorespaces \relax }}{10}{figure.caption.10}\protected@file@percent }
\newlabel{fig:ex_mean}{{2.3}{10}{\relax }{figure.caption.10}{}}
\@writefile{toc}{\defcounter {refsection}{0}\relax }\@writefile{toc}{\contentsline {section}{\numberline {2.4}Applied distributions for importance sampling}{10}{section.2.4}\protected@file@percent }
\@writefile{toc}{\defcounter {refsection}{0}\relax }\@writefile{toc}{\contentsline {subsubsection}{\nonumberline Uniform drawing}{11}{section*.11}\protected@file@percent }
\@writefile{toc}{\defcounter {refsection}{0}\relax }\@writefile{toc}{\contentsline {subsubsection}{\nonumberline Tracing}{11}{section*.12}\protected@file@percent }
\@writefile{toc}{\defcounter {refsection}{0}\relax }\@writefile{toc}{\contentsline {subsubsection}{\nonumberline Compound drawing}{11}{section*.13}\protected@file@percent }
\BKM@entry{id=7,dest={636861707465722E33},srcline={1}}{526573756C7473}
\BKM@entry{id=8,dest={73656374696F6E2E332E31},srcline={4}}{537461746973746963}
\BKM@entry{id=9,dest={73756273656374696F6E2E332E312E31},srcline={6}}{496E74657276616C20657374696D6174696F6E}
\abx@aux@cite{book:11854}
\abx@aux@segm{0}{0}{book:11854}
\abx@aux@cite{AC08993515}
\abx@aux@segm{0}{0}{AC08993515}
\BKM@entry{id=10,dest={73756273656374696F6E2E332E312E32},srcline={36}}{53616D706C652056617269616E636520446973747269627574696F6E}
\abx@aux@cite{ADictionaryofStatistics}
\abx@aux@segm{0}{0}{ADictionaryofStatistics}
\@writefile{toc}{\defcounter {refsection}{0}\relax }\@writefile{toc}{\contentsline {chapter}{\numberline {3}Results}{12}{chapter.3}\protected@file@percent }
\@writefile{lof}{\defcounter {refsection}{0}\relax }\@writefile{lof}{\addvspace {10\p@ }}
\@writefile{lot}{\defcounter {refsection}{0}\relax }\@writefile{lot}{\addvspace {10\p@ }}
\@writefile{lol}{\defcounter {refsection}{0}\relax }\@writefile{lol}{\addvspace {10\p@ }}
\newlabel{ch:results}{{3}{12}{Results}{chapter.3}{}}
\@writefile{toc}{\defcounter {refsection}{0}\relax }\@writefile{toc}{\contentsline {section}{\numberline {3.1}Statistic}{12}{section.3.1}\protected@file@percent }
\@writefile{toc}{\defcounter {refsection}{0}\relax }\@writefile{toc}{\contentsline {subsection}{\numberline {3.1.1}Interval estimation}{12}{subsection.3.1.1}\protected@file@percent }
\newlabel{subsec:interval_est}{{3.1.1}{12}{Interval estimation}{subsection.3.1.1}{}}
\newlabel{eq:intervalEstimation}{{3.1}{12}{Interval estimation}{equation.3.1.1}{}}
\@writefile{toc}{\defcounter {refsection}{0}\relax }\@writefile{toc}{\contentsline {subsection}{\numberline {3.1.2}Sample Variance Distribution}{12}{subsection.3.1.2}\protected@file@percent }
\newlabel{eq:sampleVarianceDistribution}{{3.2}{12}{Sample Variance Distribution}{equation.3.1.2}{}}
\abx@aux@cite{book:981959}
\abx@aux@segm{0}{0}{book:981959}
\abx@aux@cite{book:13960}
\abx@aux@segm{0}{0}{book:13960}
\newlabel{eq:varofsamplevar}{{3.3}{13}{Sample Variance Distribution}{equation.3.1.3}{}}
\BKM@entry{id=11,dest={73756273656374696F6E2E332E312E33},srcline={76}}{542D54657374}
\abx@aux@cite{100stattests}
\abx@aux@segm{0}{0}{100stattests}
\BKM@entry{id=12,dest={73656374696F6E2E332E32},srcline={97}}{416262726576696174696F6E}
\BKM@entry{id=13,dest={73656374696F6E2E332E33},srcline={101}}{46696E64696E6773}
\@writefile{toc}{\defcounter {refsection}{0}\relax }\@writefile{toc}{\contentsline {subsection}{\numberline {3.1.3}T-Test}{14}{subsection.3.1.3}\protected@file@percent }
\newlabel{subsec:t-test}{{3.1.3}{14}{T-Test}{subsection.3.1.3}{}}
\@writefile{toc}{\defcounter {refsection}{0}\relax }\@writefile{toc}{\contentsline {section}{\numberline {3.2}Abbreviation}{14}{section.3.2}\protected@file@percent }
\@writefile{toc}{\defcounter {refsection}{0}\relax }\@writefile{toc}{\contentsline {section}{\numberline {3.3}Findings}{14}{section.3.3}\protected@file@percent }
\@writefile{toc}{\defcounter {refsection}{0}\relax }\@writefile{toc}{\contentsline {subsubsection}{\nonumberline uniform and compound drawing (uccucc)}{15}{section*.14}\protected@file@percent }
\@writefile{lof}{\defcounter {refsection}{0}\relax }\@writefile{lof}{\contentsline {figure}{\numberline {3.1}{\ignorespaces evolution of the mean while sample size increases\relax }}{15}{figure.caption.15}\protected@file@percent }
\newlabel{fig:mean-uccucc}{{3.1}{15}{evolution of the mean while sample size increases\relax }{figure.caption.15}{}}
\@writefile{lof}{\defcounter {refsection}{0}\relax }\@writefile{lof}{\contentsline {figure}{\numberline {3.2}{\ignorespaces evolution of the mean including the estimated confidence interval\relax }}{16}{figure.caption.16}\protected@file@percent }
\newlabel{fig:meanIntervallEst-uccucc}{{3.2}{16}{evolution of the mean including the estimated confidence interval\relax }{figure.caption.16}{}}
\@writefile{lof}{\defcounter {refsection}{0}\relax }\@writefile{lof}{\contentsline {subfigure}{\numberline{(a)}{\ignorespaces {}}}{16}{figure.caption.16}\protected@file@percent }
\@writefile{lof}{\defcounter {refsection}{0}\relax }\@writefile{lof}{\contentsline {subfigure}{\numberline{(b)}{\ignorespaces {PDF $f_{X}$ and CDF $F_{X}$}}}{16}{figure.caption.16}\protected@file@percent }
\@writefile{lof}{\defcounter {refsection}{0}\relax }\@writefile{lof}{\contentsline {subfigure}{\numberline{(a)}{\ignorespaces {samples of random number $X$ with the dashed line showing the expected distribution of samples}}}{16}{figure.caption.16}\protected@file@percent }
\@writefile{lof}{\defcounter {refsection}{0}\relax }\@writefile{lof}{\contentsline {subfigure}{\numberline{(b)}{\ignorespaces {transformed observable $\mathaccentV{tilde}07E{O}$}}}{16}{figure.caption.16}\protected@file@percent }
\@writefile{lof}{\defcounter {refsection}{0}\relax }\@writefile{lof}{\contentsline {subfigure}{\numberline{(a)}{\ignorespaces {importance sampling}}}{16}{figure.caption.16}\protected@file@percent }
\@writefile{lof}{\defcounter {refsection}{0}\relax }\@writefile{lof}{\contentsline {subfigure}{\numberline{(b)}{\ignorespaces {normal distributed sampling}}}{16}{figure.caption.16}\protected@file@percent }
\@writefile{lof}{\defcounter {refsection}{0}\relax }\@writefile{lof}{\contentsline {subfigure}{\numberline{(a)}{\ignorespaces {}}}{16}{figure.caption.16}\protected@file@percent }
\@writefile{lof}{\defcounter {refsection}{0}\relax }\@writefile{lof}{\contentsline {subfigure}{\numberline{(b)}{\ignorespaces {small sample sizes are cut off}}}{16}{figure.caption.16}\protected@file@percent }
\@writefile{lof}{\defcounter {refsection}{0}\relax }\@writefile{lof}{\contentsline {subfigure}{\numberline{(a)}{\ignorespaces {estimation of the variance as in eq. (\ref {eq:intervalEstimation})}}}{16}{figure.caption.16}\protected@file@percent }
\@writefile{lof}{\defcounter {refsection}{0}\relax }\@writefile{lof}{\contentsline {subfigure}{\numberline{(b)}{\ignorespaces {including the sample variance distribution}}}{16}{figure.caption.16}\protected@file@percent }
\@writefile{lof}{\defcounter {refsection}{0}\relax }\@writefile{lof}{\contentsline {figure}{\numberline {3.3}{\ignorespaces T-test, with a conditional probability $\alpha =1\%$ \relax }}{16}{figure.caption.17}\protected@file@percent }
\newlabel{fig:t-Test-uccucc}{{3.3}{16}{T-test, with a conditional probability $\alpha =1\%$ \relax }{figure.caption.17}{}}
\@writefile{toc}{\defcounter {refsection}{0}\relax }\@writefile{toc}{\contentsline {subsubsection}{\nonumberline tracing and compound drawing (tttccc)}{17}{section*.18}\protected@file@percent }
\@writefile{lof}{\defcounter {refsection}{0}\relax }\@writefile{lof}{\contentsline {figure}{\numberline {3.4}{\ignorespaces evolution of the mean while sample size increases\relax }}{17}{figure.caption.19}\protected@file@percent }
\newlabel{fig:mean-ttTccc}{{3.4}{17}{evolution of the mean while sample size increases\relax }{figure.caption.19}{}}
\@writefile{lof}{\defcounter {refsection}{0}\relax }\@writefile{lof}{\contentsline {figure}{\numberline {3.5}{\ignorespaces evolution of the mean including the estimated confidence interval\relax }}{18}{figure.caption.20}\protected@file@percent }
\newlabel{fig:meanIntervallEst-ttTccc}{{3.5}{18}{evolution of the mean including the estimated confidence interval\relax }{figure.caption.20}{}}
\@writefile{lof}{\defcounter {refsection}{0}\relax }\@writefile{lof}{\contentsline {figure}{\numberline {3.6}{\ignorespaces T-test, with a conditional probability $\alpha =1\%$ \relax }}{18}{figure.caption.21}\protected@file@percent }
\newlabel{fig:t-Test-ttTccc}{{3.6}{18}{T-test, with a conditional probability $\alpha =1\%$ \relax }{figure.caption.21}{}}
\@writefile{toc}{\defcounter {refsection}{0}\relax }\@writefile{toc}{\contentsline {subsubsection}{\nonumberline comparison}{19}{section*.22}\protected@file@percent }
\@writefile{lof}{\defcounter {refsection}{0}\relax }\@writefile{lof}{\contentsline {figure}{\numberline {3.7}{\ignorespaces evolution of the mean of two different sampling methods\relax }}{19}{figure.caption.23}\protected@file@percent }
\newlabel{fig:mean-uccucc-ttTccc}{{3.7}{19}{evolution of the mean of two different sampling methods\relax }{figure.caption.23}{}}
\@writefile{lof}{\defcounter {refsection}{0}\relax }\@writefile{lof}{\contentsline {figure}{\numberline {3.8}{\ignorespaces evolution of the variance of the two sampling methods\relax }}{19}{figure.caption.24}\protected@file@percent }
\newlabel{fig:variance-uccucc-ttTccc}{{3.8}{19}{evolution of the variance of the two sampling methods\relax }{figure.caption.24}{}}
\@writefile{lof}{\defcounter {refsection}{0}\relax }\@writefile{lof}{\contentsline {figure}{\numberline {3.9}{\ignorespaces for better visibility only the first two runs of previous \relax }}{20}{figure.caption.25}\protected@file@percent }
\newlabel{fig:meanIntervallEst_uccucc-ttTccc}{{3.9}{20}{for better visibility only the first two runs of previous \relax }{figure.caption.25}{}}
\@writefile{lot}{\defcounter {refsection}{0}\relax }\@writefile{lot}{\contentsline {subtable}{\numberline{(a)}{\ignorespaces {}}}{20}{table.3.1}\protected@file@percent }
\@writefile{lot}{\defcounter {refsection}{0}\relax }\@writefile{lot}{\contentsline {subtable}{\numberline{(b)}{\ignorespaces {small sample sizes are cut off}}}{20}{table.3.1}\protected@file@percent }
\@writefile{lot}{\defcounter {refsection}{0}\relax }\@writefile{lot}{\contentsline {subtable}{\numberline{(a)}{\ignorespaces {estimation of the variance}}}{20}{table.3.1}\protected@file@percent }
\@writefile{lot}{\defcounter {refsection}{0}\relax }\@writefile{lot}{\contentsline {subtable}{\numberline{(b)}{\ignorespaces {considering the sample variance distribution}}}{20}{table.3.1}\protected@file@percent }
\@writefile{lot}{\defcounter {refsection}{0}\relax }\@writefile{lot}{\contentsline {subtable}{\numberline{(a)}{\ignorespaces {}}}{20}{table.3.1}\protected@file@percent }
\@writefile{lot}{\defcounter {refsection}{0}\relax }\@writefile{lot}{\contentsline {subtable}{\numberline{(b)}{\ignorespaces {more visible on one run}}}{20}{table.3.1}\protected@file@percent }
\@writefile{lot}{\defcounter {refsection}{0}\relax }\@writefile{lot}{\contentsline {subtable}{\numberline{(a)}{\ignorespaces {estimation of the variance as in eq. (\ref {eq:intervalEstimation})}}}{20}{table.3.1}\protected@file@percent }
\@writefile{lot}{\defcounter {refsection}{0}\relax }\@writefile{lot}{\contentsline {subtable}{\numberline{(b)}{\ignorespaces {taking the sample variance distribution into account}}}{20}{table.3.1}\protected@file@percent }
\@writefile{lot}{\defcounter {refsection}{0}\relax }\@writefile{lot}{\contentsline {table}{\numberline {3.1}{\ignorespaces statistical values of the sampling methods\relax }}{20}{table.3.1}\protected@file@percent }
\newlabel{tab:statval}{{3.1}{20}{statistical values of the sampling methods\relax }{table.3.1}{}}
\@writefile{toc}{\defcounter {refsection}{0}\relax }\@writefile{toc}{\contentsline {subsubsection}{\nonumberline Conclusion}{20}{section*.26}\protected@file@percent }
\BKM@entry{id=14,dest={617070656E6469782E41},srcline={1}}{5365636F6E642D6F7264657220487567656E686F6C747A206469616772616D}
\abx@aux@cite{AC00655843}
\abx@aux@segm{0}{0}{AC00655843}
\@writefile{toc}{\defcounter {refsection}{0}\relax }\@writefile{toc}{\contentsline {chapter}{\numberline {A}Second-order Hugenholtz diagram}{21}{appendix.A}\protected@file@percent }
\@writefile{lof}{\defcounter {refsection}{0}\relax }\@writefile{lof}{\addvspace {10\p@ }}
\@writefile{lot}{\defcounter {refsection}{0}\relax }\@writefile{lot}{\addvspace {10\p@ }}
\@writefile{lol}{\defcounter {refsection}{0}\relax }\@writefile{lol}{\addvspace {10\p@ }}
\newlabel{app:HugenholtzDiag}{{A}{21}{Second-order Hugenholtz diagram}{appendix.A}{}}
\newlabel{eq:hugenholtz_simplified1}{{A.4}{22}{Second-order Hugenholtz diagram}{equation.A.0.4}{}}
\abx@aux@segm{0}{0}{AC00655843}
\BKM@entry{id=15,dest={617070656E6469782E42},srcline={1}}{5365636F6E642D6F7264657220476F6C6473746F6E65206469616772616D}
\abx@aux@segm{0}{0}{AC00655843}
\abx@aux@segm{0}{0}{AC00655843}
\@writefile{toc}{\defcounter {refsection}{0}\relax }\@writefile{toc}{\contentsline {chapter}{\numberline {B}Second-order Goldstone diagram}{24}{appendix.B}\protected@file@percent }
\@writefile{lof}{\defcounter {refsection}{0}\relax }\@writefile{lof}{\addvspace {10\p@ }}
\@writefile{lot}{\defcounter {refsection}{0}\relax }\@writefile{lot}{\addvspace {10\p@ }}
\@writefile{lol}{\defcounter {refsection}{0}\relax }\@writefile{lol}{\addvspace {10\p@ }}
\newlabel{app:GoldstoneDiag}{{B}{24}{Second-order Goldstone diagram}{appendix.B}{}}
\BKM@entry{id=16,dest={636861707465722A2E3330},srcline={75}}{4269626C696F677261706879}
\@writefile{toc}{\defcounter {refsection}{0}\relax }\@writefile{toc}{\contentsline {chapter}{\nonumberline Bibliography}{i}{chapter*.30}\protected@file@percent }
\@writefile{lof}{\defcounter {refsection}{0}\relax }\@writefile{lof}{\addvspace {10\p@ }}
\@writefile{lot}{\defcounter {refsection}{0}\relax }\@writefile{lot}{\addvspace {10\p@ }}
\@writefile{lol}{\defcounter {refsection}{0}\relax }\@writefile{lol}{\addvspace {10\p@ }}
\abx@aux@refcontextdefaultsdone
\abx@aux@defaultrefcontext{0}{HandbookMCMC}{nty/global//global/global}
\abx@aux@defaultrefcontext{0}{book:981959}{nty/global//global/global}
\abx@aux@defaultrefcontext{0}{AC00103169}{nty/global//global/global}
\abx@aux@defaultrefcontext{0}{AC02445899}{nty/global//global/global}
\abx@aux@defaultrefcontext{0}{Person1}{nty/global//global/global}
\abx@aux@defaultrefcontext{0}{doi:10.1063/1.4977994}{nty/global//global/global}
\abx@aux@defaultrefcontext{0}{Person2}{nty/global//global/global}
\abx@aux@defaultrefcontext{0}{100stattests}{nty/global//global/global}
\abx@aux@defaultrefcontext{0}{book:13960}{nty/global//global/global}
\abx@aux@defaultrefcontext{0}{book:11854}{nty/global//global/global}
\abx@aux@defaultrefcontext{0}{AC08207698}{nty/global//global/global}
\abx@aux@defaultrefcontext{0}{AC08993515}{nty/global//global/global}
\abx@aux@defaultrefcontext{0}{rubinstein}{nty/global//global/global}
\abx@aux@defaultrefcontext{0}{AC00655843}{nty/global//global/global}
\abx@aux@defaultrefcontext{0}{AC02552795}{nty/global//global/global}
\abx@aux@defaultrefcontext{0}{ADictionaryofStatistics}{nty/global//global/global}
\global\csname @altsecnumformattrue\endcsname
\global\@namedef{scr@dte@chapter@lastmaxnumwidth}{18.10382pt}
\global\@namedef{scr@dte@section@lastmaxnumwidth}{22.97206pt}
\global\@namedef{scr@dte@subsection@lastmaxnumwidth}{32.1087pt}
