\boolfalse {citerequest}\boolfalse {citetracker}\boolfalse {pagetracker}\boolfalse {backtracker}\relax 
\babel@toc {german}{}
\babel@toc {german}{}
\babel@toc {english}{}
\defcounter {refsection}{0}\relax 
\contentsline {chapter}{\numberline {1}Introduction}{1}{chapter.1}% 
\defcounter {refsection}{0}\relax 
\contentsline {chapter}{\numberline {2}Stochastic evaluation of tensor networks}{5}{chapter.2}% 
\defcounter {refsection}{0}\relax 
\contentsline {section}{\numberline {2.1}Monte-Carlo evaluation}{5}{section.2.1}% 
\defcounter {refsection}{0}\relax 
\contentsline {section}{\numberline {2.2}Importance sampling}{7}{section.2.2}% 
\defcounter {refsection}{0}\relax 
\contentsline {section}{\numberline {2.3}Inversion method}{8}{section.2.3}% 
\defcounter {refsection}{0}\relax 
\contentsline {subsubsection}{\nonumberline Simple Example}{9}{section*.7}% 
\defcounter {refsection}{0}\relax 
\contentsline {section}{\numberline {2.4}Applied distributions for importance sampling}{10}{section.2.4}% 
\defcounter {refsection}{0}\relax 
\contentsline {subsubsection}{\nonumberline Uniform drawing}{11}{section*.11}% 
\defcounter {refsection}{0}\relax 
\contentsline {subsubsection}{\nonumberline Tracing}{11}{section*.12}% 
\defcounter {refsection}{0}\relax 
\contentsline {subsubsection}{\nonumberline Compound drawing}{11}{section*.13}% 
\defcounter {refsection}{0}\relax 
\contentsline {chapter}{\numberline {3}Results}{12}{chapter.3}% 
\defcounter {refsection}{0}\relax 
\contentsline {section}{\numberline {3.1}Statistic}{12}{section.3.1}% 
\defcounter {refsection}{0}\relax 
\contentsline {subsection}{\numberline {3.1.1}Interval estimation}{12}{subsection.3.1.1}% 
\defcounter {refsection}{0}\relax 
\contentsline {subsection}{\numberline {3.1.2}Sample Variance Distribution}{12}{subsection.3.1.2}% 
\defcounter {refsection}{0}\relax 
\contentsline {subsection}{\numberline {3.1.3}T-Test}{14}{subsection.3.1.3}% 
\defcounter {refsection}{0}\relax 
\contentsline {section}{\numberline {3.2}Abbreviation}{14}{section.3.2}% 
\defcounter {refsection}{0}\relax 
\contentsline {section}{\numberline {3.3}Findings}{14}{section.3.3}% 
\defcounter {refsection}{0}\relax 
\contentsline {subsubsection}{\nonumberline uniform and compound drawing (uccucc)}{15}{section*.14}% 
\defcounter {refsection}{0}\relax 
\contentsline {subsubsection}{\nonumberline tracing and compound drawing (tttccc)}{17}{section*.18}% 
\defcounter {refsection}{0}\relax 
\contentsline {subsubsection}{\nonumberline comparison}{19}{section*.22}% 
\defcounter {refsection}{0}\relax 
\contentsline {subsubsection}{\nonumberline Conclusion}{20}{section*.26}% 
\defcounter {refsection}{0}\relax 
\contentsline {chapter}{\numberline {A}Second-order Hugenholtz diagram}{21}{appendix.A}% 
\defcounter {refsection}{0}\relax 
\contentsline {chapter}{\numberline {B}Second-order Goldstone diagram}{24}{appendix.B}% 
\defcounter {refsection}{0}\relax 
\contentsline {chapter}{\nonumberline Bibliography}{i}{chapter*.30}% 
